<?xml version="1.0" encoding="UTF-8" standalone="no"?>
<!-- Created with Inkscape (http://www.inkscape.org/) -->

<svg
   xmlns:dc="http://purl.org/dc/elements/1.1/"
   xmlns:cc="http://creativecommons.org/ns#"
   xmlns:rdf="http://www.w3.org/1999/02/22-rdf-syntax-ns#"
   xmlns:svg="http://www.w3.org/2000/svg"
   xmlns="http://www.w3.org/2000/svg"
   xmlns:sodipodi="http://sodipodi.sourceforge.net/DTD/sodipodi-0.dtd"
   xmlns:inkscape="http://www.inkscape.org/namespaces/inkscape"
   width="744.09448819"
   height="1052.3622047"
   id="svg2"
   version="1.1"
   inkscape:version="0.48.5 r10040"
   sodipodi:docname="New document 1">
  <defs
     id="defs4" />
  <sodipodi:namedview
     id="base"
     pagecolor="#ffffff"
     bordercolor="#666666"
     borderopacity="1.0"
     inkscape:pageopacity="0.0"
     inkscape:pageshadow="2"
     inkscape:zoom="0.70710678"
     inkscape:cx="434.92638"
     inkscape:cy="670.97674"
     inkscape:document-units="px"
     inkscape:current-layer="g3783"
     showgrid="false"
     inkscape:window-width="1366"
     inkscape:window-height="744"
     inkscape:window-x="0"
     inkscape:window-y="24"
     inkscape:window-maximized="1" />
  <metadata
     id="metadata7">
    <rdf:RDF>
      <cc:Work
         rdf:about="">
        <dc:format>image/svg+xml</dc:format>
        <dc:type
           rdf:resource="http://purl.org/dc/dcmitype/StillImage" />
        <dc:title></dc:title>
      </cc:Work>
    </rdf:RDF>
  </metadata>
  <g
     inkscape:label="Layer 1"
     inkscape:groupmode="layer"
     id="layer1">
    <text
       xml:space="preserve"
       style="font-size:772.44586182px;font-style:normal;font-variant:normal;font-weight:bold;font-stretch:normal;line-height:125%;letter-spacing:0px;word-spacing:0px;fill:#000000;fill-opacity:1;stroke:none;font-family:Lovelo;-inkscape-font-specification:Lovelo Bold"
       x="-1021.9155"
       y="740.86334"
       id="text2985"
       sodipodi:linespacing="125%"><tspan
         sodipodi:role="line"
         id="tspan2987"
         x="-1021.9155"
         y="740.86334">#</tspan></text>
    <g
       id="g3783">
      <g
         id="g3832">
        <path
           style="color:#000000;fill:#3498db;fill-opacity:1;fill-rule:nonzero;stroke:none;stroke-width:1px;marker:none;visibility:visible;display:inline;overflow:visible;enable-background:accumulate"
           d="m 123.23861,323.53712 0,79.80205 290.16632,0 -80.8122,329.05719 83.33758,0 101.77287,-409.61685 z"
           id="path3759"
           inkscape:connector-curvature="0" />
        <path
           style="color:#000000;fill:#27ae60;fill-opacity:0.78431374;fill-rule:nonzero;stroke:none;stroke-width:1px;marker:none;visibility:visible;display:inline;overflow:visible;enable-background:accumulate"
           d="m 286.88332,178.58023 84.0952,0 -36.61803,145.46197 -46.71955,183.34268 291.17647,0 0,80.05459 -393.45442,0 10.32533,-45.65211 7.89397,-35.03983 0.74153,-3.15339 8.24045,-31.96286 5.60479,-22.01238 5.42631,-21.11934 3.60606,-14.16356 1.6157,-6.28089 z"
           id="path2989"
           inkscape:connector-curvature="0"
           sodipodi:nodetypes="cccccccccccccccc" />
        <path
           style="color:#000000;fill:#c0392b;fill-opacity:1;fill-rule:nonzero;stroke:none;stroke-width:1px;marker:none;visibility:visible;display:inline;overflow:visible;enable-background:accumulate"
           d="m 434.41786,322.89882 83.57143,0 36.42857,-144.28571 -83.21428,0 z"
           id="path3763"
           inkscape:connector-curvature="0" />
        <path
           style="color:#000000;fill:#d35400;fill-opacity:1;fill-rule:nonzero;stroke:none;stroke-width:1px;marker:none;visibility:visible;display:inline;overflow:visible;enable-background:accumulate"
           d="m 148.61368,731.55871 83.57143,0 36.42857,-144.28571 -83.21428,0 z"
           id="path3763-6"
           inkscape:connector-curvature="0" />
      </g>
    </g>
  </g>
</svg>
